{
    "gitmoji.additionalEmojis": [
        {
            "emoji": "😭",
            "code": ":sob:",
            "description": "Make changes that make you sad, but have to be done."
        },
        {
            "emoji": "🤷",
            "code": ":shrug:",
            "description": "I have no idea what i have just done. but i feel i need to commit this."
        },
        {
            "emoji": "🤣",
            "code": ":rofl:",
            "description": "Joke change/add to joke"
        },
        {
            "emoji": "🛏️",
            "code": ":bed:",
            "description": "I'm tired... just let me commit this before i sleep..."
        },
        {
            "emoji":"🚢",
            "code":":ship:",
            "description":"Changes which deal with porting"
        },
        {
            "emoji":"💵",
            "code":":dollar:",
            "description":"Changes to financal matters"
        },
        {
            "emoji":"🚫",
            "code":":no_entry_sign:",
            "description":"No gitmoji for specific change"
        },
        {
            "emoji":"‼️",
            "code":":bangbang:",
            "description":"Very important change"
        },
        {
            "emoji":"❗",
            "code":":exclamation:",
            "description":"Important change"
        },
        {
            "emoji":"🙄",
            "code":":roll_eyes:",
            "description":"Add to propietary features"
        }
    ]
}